output/RV_CPU_tb.vcd
$date
	Mon Aug 26 19:13:48 2024
$end
$version
	Icarus Verilog
$end
$timescale
	1ps
$end
$scope module RV_CPU_tb $end
$var wire 10 ! out [9:0] $end
$var reg 1 " clk $end
$var reg 1 # reset $end
$scope module dut $end
$var wire 1 $ CPU_clk_ayu_a0 $end
$var wire 1 % CPU_dmem_rd_en_a4 $end
$var wire 1 & CPU_dmem_wr_en_a4 $end
$var wire 1 ' CPU_funct3_valid_a1 $end
$var wire 1 ( CPU_funct7_valid_a1 $end
$var wire 32 ) CPU_instr_a1 [31:0] $end
$var wire 1 * CPU_is_i_instr_a1 $end
$var wire 1 + CPU_is_jump_a1 $end
$var wire 1 , CPU_is_r_instr_a1 $end
$var wire 1 - CPU_is_s_instr_a1 $end
$var wire 1 . CPU_is_u_instr_a1 $end
$var wire 32 / CPU_ld_data_a5 [31:0] $end
$var wire 1 0 CPU_rd_valid_a1 $end
$var wire 1 1 CPU_reset_a0 $end
$var wire 32 2 CPU_rf_rd_data1_a2 [31:0] $end
$var wire 32 3 CPU_rf_rd_data2_a2 [31:0] $end
$var wire 1 4 CPU_rf_rd_en1_a2 $end
$var wire 1 5 CPU_rf_rd_en2_a2 $end
$var wire 5 6 CPU_rf_rd_index1_a2 [4:0] $end
$var wire 5 7 CPU_rf_rd_index2_a2 [4:0] $end
$var wire 1 8 CPU_rf_wr_en_a3 $end
$var wire 1 9 CPU_rs1_valid_a1 $end
$var wire 1 : CPU_rs2_valid_a1 $end
$var wire 1 ; CPU_valid_jump_a3 $end
$var wire 1 < CPU_valid_load_a3 $end
$var wire 1 = CPU_valid_taken_br_a3 $end
$var wire 1 " clk $end
$var wire 1 > clk_ayu $end
$var wire 1 # reset $end
$var wire 32 ? w_CPU_dmem_rd_data_a4 [31:0] $end
$var wire 5 @ w_CPU_rs2_a1 [4:0] $end
$var wire 5 A w_CPU_rs1_a1 [4:0] $end
$var wire 5 B w_CPU_rd_a1 [4:0] $end
$var wire 1 C clkP_CPU_rs2_valid_a2 $end
$var wire 1 D clkP_CPU_rs1_valid_a2 $end
$var wire 1 E clkP_CPU_rd_valid_a5 $end
$var wire 1 F clkP_CPU_rd_valid_a4 $end
$var wire 1 G clkP_CPU_rd_valid_a3 $end
$var wire 1 H clkP_CPU_rd_valid_a2 $end
$var wire 1 I clkP_CPU_dmem_rd_en_a5 $end
$var wire 1 J CPU_valid_a3 $end
$var wire 1 K CPU_taken_br_a3 $end
$var wire 32 L CPU_src2_value_a2 [31:0] $end
$var wire 32 M CPU_src1_value_a2 [31:0] $end
$var wire 1 N CPU_sltu_result_a3 $end
$var wire 1 O CPU_sltiu_result_a3 $end
$var wire 5 P CPU_rf_wr_index_a3 [4:0] $end
$var wire 32 Q CPU_rf_wr_data_a3 [31:0] $end
$var wire 32 R CPU_result_a3 [31:0] $end
$var wire 32 S CPU_pc_a0 [31:0] $end
$var wire 7 T CPU_opcode_a1 [6:0] $end
$var wire 32 U CPU_jalr_tgt_pc_a2 [31:0] $end
$var wire 1 V CPU_is_xori_a1 $end
$var wire 1 W CPU_is_xor_a1 $end
$var wire 1 X CPU_is_sw_a1 $end
$var wire 1 Y CPU_is_sub_a1 $end
$var wire 1 Z CPU_is_srli_a1 $end
$var wire 1 [ CPU_is_srl_a1 $end
$var wire 1 \ CPU_is_srai_a1 $end
$var wire 1 ] CPU_is_sra_a1 $end
$var wire 1 ^ CPU_is_sltu_a1 $end
$var wire 1 _ CPU_is_sltiu_a1 $end
$var wire 1 ` CPU_is_slti_a1 $end
$var wire 1 a CPU_is_slt_a1 $end
$var wire 1 b CPU_is_slli_a1 $end
$var wire 1 c CPU_is_sll_a1 $end
$var wire 1 d CPU_is_sh_a1 $end
$var wire 1 e CPU_is_sb_a1 $end
$var wire 1 f CPU_is_ori_a1 $end
$var wire 1 g CPU_is_or_a1 $end
$var wire 1 h CPU_is_lui_a1 $end
$var wire 1 i CPU_is_load_a1 $end
$var wire 1 j CPU_is_jalr_a1 $end
$var wire 1 k CPU_is_jal_a1 $end
$var wire 1 l CPU_is_j_instr_a1 $end
$var wire 1 m CPU_is_bne_a1 $end
$var wire 1 n CPU_is_bltu_a1 $end
$var wire 1 o CPU_is_blt_a1 $end
$var wire 1 p CPU_is_bgeu_a1 $end
$var wire 1 q CPU_is_bge_a1 $end
$var wire 1 r CPU_is_beq_a1 $end
$var wire 1 s CPU_is_b_instr_a1 $end
$var wire 1 t CPU_is_auipc_a1 $end
$var wire 1 u CPU_is_andi_a1 $end
$var wire 1 v CPU_is_and_a1 $end
$var wire 1 w CPU_is_addi_a1 $end
$var wire 1 x CPU_is_add_a1 $end
$var wire 32 y CPU_inc_pc_a1 [31:0] $end
$var wire 32 z CPU_imm_a1 [31:0] $end
$var wire 1 { CPU_imem_rd_en_a0 $end
$var wire 32 | CPU_imem_rd_data_a1 [31:0] $end
$var wire 32 } CPU_imem_rd_addr_a0 [31:0] $end
$var wire 7 ~ CPU_funct7_a1 [6:0] $end
$var wire 3 !" CPU_funct3_a1 [2:0] $end
$var wire 32 "" CPU_dmem_wr_data_a4 [31:0] $end
$var wire 4 #" CPU_dmem_addr_a4 [3:0] $end
$var wire 11 $" CPU_dec_bits_a1 [10:0] $end
$var wire 32 %" CPU_br_tgt_pc_a2 [31:0] $end
$var reg 32 &" CPU_br_tgt_pc_a3 [31:0] $end
$var reg 1 '" CPU_clk_ayu_a1 $end
$var reg 1 (" CPU_clk_ayu_a2 $end
$var reg 1 )" CPU_clk_ayu_a3 $end
$var reg 1 *" CPU_clk_ayu_a4 $end
$var reg 1 +" CPU_clk_ayu_a5 $end
$var reg 32 ," CPU_dmem_rd_data_a5 [31:0] $end
$var reg 32 -" CPU_imem_rd_addr_a1 [31:0] $end
$var reg 1 ." CPU_imem_rd_en_a1 $end
$var reg 32 /" CPU_imm_a2 [31:0] $end
$var reg 32 0" CPU_imm_a3 [31:0] $end
$var reg 32 1" CPU_inc_pc_a2 [31:0] $end
$var reg 32 2" CPU_inc_pc_a3 [31:0] $end
$var reg 1 3" CPU_is_add_a2 $end
$var reg 1 4" CPU_is_add_a3 $end
$var reg 1 5" CPU_is_addi_a2 $end
$var reg 1 6" CPU_is_addi_a3 $end
$var reg 1 7" CPU_is_and_a2 $end
$var reg 1 8" CPU_is_and_a3 $end
$var reg 1 9" CPU_is_andi_a2 $end
$var reg 1 :" CPU_is_andi_a3 $end
$var reg 1 ;" CPU_is_auipc_a2 $end
$var reg 1 <" CPU_is_auipc_a3 $end
$var reg 1 =" CPU_is_beq_a2 $end
$var reg 1 >" CPU_is_beq_a3 $end
$var reg 1 ?" CPU_is_beq_a4 $end
$var reg 1 @" CPU_is_beq_a5 $end
$var reg 1 A" CPU_is_bge_a2 $end
$var reg 1 B" CPU_is_bge_a3 $end
$var reg 1 C" CPU_is_bge_a4 $end
$var reg 1 D" CPU_is_bge_a5 $end
$var reg 1 E" CPU_is_bgeu_a2 $end
$var reg 1 F" CPU_is_bgeu_a3 $end
$var reg 1 G" CPU_is_bgeu_a4 $end
$var reg 1 H" CPU_is_bgeu_a5 $end
$var reg 1 I" CPU_is_blt_a2 $end
$var reg 1 J" CPU_is_blt_a3 $end
$var reg 1 K" CPU_is_blt_a4 $end
$var reg 1 L" CPU_is_blt_a5 $end
$var reg 1 M" CPU_is_bltu_a2 $end
$var reg 1 N" CPU_is_bltu_a3 $end
$var reg 1 O" CPU_is_bltu_a4 $end
$var reg 1 P" CPU_is_bltu_a5 $end
$var reg 1 Q" CPU_is_bne_a2 $end
$var reg 1 R" CPU_is_bne_a3 $end
$var reg 1 S" CPU_is_bne_a4 $end
$var reg 1 T" CPU_is_bne_a5 $end
$var reg 1 U" CPU_is_jal_a2 $end
$var reg 1 V" CPU_is_jal_a3 $end
$var reg 1 W" CPU_is_jalr_a2 $end
$var reg 1 X" CPU_is_jalr_a3 $end
$var reg 1 Y" CPU_is_jump_a2 $end
$var reg 1 Z" CPU_is_jump_a3 $end
$var reg 1 [" CPU_is_load_a2 $end
$var reg 1 \" CPU_is_load_a3 $end
$var reg 1 ]" CPU_is_lui_a2 $end
$var reg 1 ^" CPU_is_lui_a3 $end
$var reg 1 _" CPU_is_or_a2 $end
$var reg 1 `" CPU_is_or_a3 $end
$var reg 1 a" CPU_is_ori_a2 $end
$var reg 1 b" CPU_is_ori_a3 $end
$var reg 1 c" CPU_is_s_instr_a2 $end
$var reg 1 d" CPU_is_s_instr_a3 $end
$var reg 1 e" CPU_is_s_instr_a4 $end
$var reg 1 f" CPU_is_sb_a2 $end
$var reg 1 g" CPU_is_sb_a3 $end
$var reg 1 h" CPU_is_sb_a4 $end
$var reg 1 i" CPU_is_sb_a5 $end
$var reg 1 j" CPU_is_sh_a2 $end
$var reg 1 k" CPU_is_sh_a3 $end
$var reg 1 l" CPU_is_sh_a4 $end
$var reg 1 m" CPU_is_sh_a5 $end
$var reg 1 n" CPU_is_sll_a2 $end
$var reg 1 o" CPU_is_sll_a3 $end
$var reg 1 p" CPU_is_slli_a2 $end
$var reg 1 q" CPU_is_slli_a3 $end
$var reg 1 r" CPU_is_slt_a2 $end
$var reg 1 s" CPU_is_slt_a3 $end
$var reg 1 t" CPU_is_slti_a2 $end
$var reg 1 u" CPU_is_slti_a3 $end
$var reg 1 v" CPU_is_sltiu_a2 $end
$var reg 1 w" CPU_is_sltiu_a3 $end
$var reg 1 x" CPU_is_sltu_a2 $end
$var reg 1 y" CPU_is_sltu_a3 $end
$var reg 1 z" CPU_is_sra_a2 $end
$var reg 1 {" CPU_is_sra_a3 $end
$var reg 1 |" CPU_is_srai_a2 $end
$var reg 1 }" CPU_is_srai_a3 $end
$var reg 1 ~" CPU_is_srl_a2 $end
$var reg 1 !# CPU_is_srl_a3 $end
$var reg 1 "# CPU_is_srli_a2 $end
$var reg 1 ## CPU_is_srli_a3 $end
$var reg 1 $# CPU_is_sub_a2 $end
$var reg 1 %# CPU_is_sub_a3 $end
$var reg 1 &# CPU_is_sw_a2 $end
$var reg 1 '# CPU_is_sw_a3 $end
$var reg 1 (# CPU_is_sw_a4 $end
$var reg 1 )# CPU_is_sw_a5 $end
$var reg 1 *# CPU_is_xor_a2 $end
$var reg 1 +# CPU_is_xor_a3 $end
$var reg 1 ,# CPU_is_xori_a2 $end
$var reg 1 -# CPU_is_xori_a3 $end
$var reg 32 .# CPU_jalr_tgt_pc_a3 [31:0] $end
$var reg 32 /# CPU_pc_a1 [31:0] $end
$var reg 32 0# CPU_pc_a2 [31:0] $end
$var reg 32 1# CPU_pc_a3 [31:0] $end
$var reg 5 2# CPU_rd_a2 [4:0] $end
$var reg 5 3# CPU_rd_a3 [4:0] $end
$var reg 5 4# CPU_rd_a4 [4:0] $end
$var reg 5 5# CPU_rd_a5 [4:0] $end
$var reg 1 6# CPU_rd_valid_a2 $end
$var reg 1 7# CPU_rd_valid_a3 $end
$var reg 1 8# CPU_rd_valid_a4 $end
$var reg 1 9# CPU_reset_a1 $end
$var reg 1 :# CPU_reset_a2 $end
$var reg 1 ;# CPU_reset_a3 $end
$var reg 1 <# CPU_reset_a4 $end
$var reg 4 =# CPU_result_a4 [5:2] $end
$var reg 5 ># CPU_rs1_a2 [4:0] $end
$var reg 1 ?# CPU_rs1_valid_a2 $end
$var reg 5 @# CPU_rs2_a2 [4:0] $end
$var reg 1 A# CPU_rs2_valid_a2 $end
$var reg 32 B# CPU_src1_value_a3 [31:0] $end
$var reg 32 C# CPU_src2_value_a3 [31:0] $end
$var reg 32 D# CPU_src2_value_a4 [31:0] $end
$var reg 1 E# CPU_valid_a4 $end
$var reg 1 F# CPU_valid_jump_a4 $end
$var reg 1 G# CPU_valid_jump_a5 $end
$var reg 1 H# CPU_valid_load_a4 $end
$var reg 1 I# CPU_valid_load_a5 $end
$var reg 1 J# CPU_valid_taken_br_a4 $end
$var reg 1 K# CPU_valid_taken_br_a5 $end
$var reg 10 L# out [9:0] $end
$scope begin L1_CPU_Dmem[0] $end
$var wire 1 M# L1_wr_a4 $end
$upscope $end
$scope begin L1_CPU_Dmem[1] $end
$var wire 1 N# L1_wr_a4 $end
$upscope $end
$scope begin L1_CPU_Dmem[2] $end
$var wire 1 O# L1_wr_a4 $end
$upscope $end
$scope begin L1_CPU_Dmem[3] $end
$var wire 1 P# L1_wr_a4 $end
$upscope $end
$scope begin L1_CPU_Dmem[4] $end
$var wire 1 Q# L1_wr_a4 $end
$upscope $end
$scope begin L1_CPU_Dmem[5] $end
$var wire 1 R# L1_wr_a4 $end
$upscope $end
$scope begin L1_CPU_Dmem[6] $end
$var wire 1 S# L1_wr_a4 $end
$upscope $end
$scope begin L1_CPU_Dmem[7] $end
$var wire 1 T# L1_wr_a4 $end
$upscope $end
$scope begin L1_CPU_Dmem[8] $end
$var wire 1 U# L1_wr_a4 $end
$upscope $end
$scope begin L1_CPU_Dmem[9] $end
$var wire 1 V# L1_wr_a4 $end
$upscope $end
$scope begin L1_CPU_Dmem[10] $end
$var wire 1 W# L1_wr_a4 $end
$upscope $end
$scope begin L1_CPU_Dmem[11] $end
$var wire 1 X# L1_wr_a4 $end
$upscope $end
$scope begin L1_CPU_Dmem[12] $end
$var wire 1 Y# L1_wr_a4 $end
$upscope $end
$scope begin L1_CPU_Dmem[13] $end
$var wire 1 Z# L1_wr_a4 $end
$upscope $end
$scope begin L1_CPU_Dmem[14] $end
$var wire 1 [# L1_wr_a4 $end
$upscope $end
$scope begin L1_CPU_Dmem[15] $end
$var wire 1 \# L1_wr_a4 $end
$upscope $end
$scope begin L1_CPU_Imem[0] $end
$upscope $end
$scope begin L1_CPU_Imem[1] $end
$upscope $end
$scope begin L1_CPU_Imem[2] $end
$upscope $end
$scope begin L1_CPU_Imem[3] $end
$upscope $end
$scope begin L1_CPU_Imem[4] $end
$upscope $end
$scope begin L1_CPU_Imem[5] $end
$upscope $end
$scope begin L1_CPU_Imem[6] $end
$upscope $end
$scope begin L1_CPU_Imem[7] $end
$upscope $end
$scope begin L1_CPU_Imem[8] $end
$upscope $end
$scope begin L1_CPU_Imem[9] $end
$upscope $end
$scope begin L1_CPU_Xreg[0] $end
$var wire 1 ]# L1_wr_a3 $end
$upscope $end
$scope begin L1_CPU_Xreg[1] $end
$var wire 1 ^# L1_wr_a3 $end
$upscope $end
$scope begin L1_CPU_Xreg[2] $end
$var wire 1 _# L1_wr_a3 $end
$upscope $end
$scope begin L1_CPU_Xreg[3] $end
$var wire 1 `# L1_wr_a3 $end
$upscope $end
$scope begin L1_CPU_Xreg[4] $end
$var wire 1 a# L1_wr_a3 $end
$upscope $end
$scope begin L1_CPU_Xreg[5] $end
$var wire 1 b# L1_wr_a3 $end
$upscope $end
$scope begin L1_CPU_Xreg[6] $end
$var wire 1 c# L1_wr_a3 $end
$upscope $end
$scope begin L1_CPU_Xreg[7] $end
$var wire 1 d# L1_wr_a3 $end
$upscope $end
$scope begin L1_CPU_Xreg[8] $end
$var wire 1 e# L1_wr_a3 $end
$upscope $end
$scope begin L1_CPU_Xreg[9] $end
$var wire 1 f# L1_wr_a3 $end
$upscope $end
$scope begin L1_CPU_Xreg[10] $end
$var wire 1 g# L1_wr_a3 $end
$upscope $end
$scope begin L1_CPU_Xreg[11] $end
$var wire 1 h# L1_wr_a3 $end
$upscope $end
$scope begin L1_CPU_Xreg[12] $end
$var wire 1 i# L1_wr_a3 $end
$upscope $end
$scope begin L1_CPU_Xreg[13] $end
$var wire 1 j# L1_wr_a3 $end
$upscope $end
$scope begin L1_CPU_Xreg[14] $end
$var wire 1 k# L1_wr_a3 $end
$upscope $end
$scope begin L1_CPU_Xreg[15] $end
$var wire 1 l# L1_wr_a3 $end
$upscope $end
$scope begin L1_CPU_Xreg[16] $end
$var wire 1 m# L1_wr_a3 $end
$upscope $end
$scope begin L1_CPU_Xreg[17] $end
$var wire 1 n# L1_wr_a3 $end
$upscope $end
$scope begin L1_CPU_Xreg[18] $end
$var wire 1 o# L1_wr_a3 $end
$upscope $end
$scope begin L1_CPU_Xreg[19] $end
$var wire 1 p# L1_wr_a3 $end
$upscope $end
$scope begin L1_CPU_Xreg[20] $end
$var wire 1 q# L1_wr_a3 $end
$upscope $end
$scope begin L1_CPU_Xreg[21] $end
$var wire 1 r# L1_wr_a3 $end
$upscope $end
$scope begin L1_CPU_Xreg[22] $end
$var wire 1 s# L1_wr_a3 $end
$upscope $end
$scope begin L1_CPU_Xreg[23] $end
$var wire 1 t# L1_wr_a3 $end
$upscope $end
$scope begin L1_CPU_Xreg[24] $end
$var wire 1 u# L1_wr_a3 $end
$upscope $end
$scope begin L1_CPU_Xreg[25] $end
$var wire 1 v# L1_wr_a3 $end
$upscope $end
$scope begin L1_CPU_Xreg[26] $end
$var wire 1 w# L1_wr_a3 $end
$upscope $end
$scope begin L1_CPU_Xreg[27] $end
$var wire 1 x# L1_wr_a3 $end
$upscope $end
$scope begin L1_CPU_Xreg[28] $end
$var wire 1 y# L1_wr_a3 $end
$upscope $end
$scope begin L1_CPU_Xreg[29] $end
$var wire 1 z# L1_wr_a3 $end
$upscope $end
$scope begin L1_CPU_Xreg[30] $end
$var wire 1 {# L1_wr_a3 $end
$upscope $end
$scope begin L1_CPU_Xreg[31] $end
$var wire 1 |# L1_wr_a3 $end
$upscope $end
$scope begin L1gen_CPU_Dmem[0] $end
$upscope $end
$scope begin L1gen_CPU_Dmem[1] $end
$upscope $end
$scope begin L1gen_CPU_Dmem[2] $end
$upscope $end
$scope begin L1gen_CPU_Dmem[3] $end
$upscope $end
$scope begin L1gen_CPU_Dmem[4] $end
$upscope $end
$scope begin L1gen_CPU_Dmem[5] $end
$upscope $end
$scope begin L1gen_CPU_Dmem[6] $end
$upscope $end
$scope begin L1gen_CPU_Dmem[7] $end
$upscope $end
$scope begin L1gen_CPU_Dmem[8] $end
$upscope $end
$scope begin L1gen_CPU_Dmem[9] $end
$upscope $end
$scope begin L1gen_CPU_Dmem[10] $end
$upscope $end
$scope begin L1gen_CPU_Dmem[11] $end
$upscope $end
$scope begin L1gen_CPU_Dmem[12] $end
$upscope $end
$scope begin L1gen_CPU_Dmem[13] $end
$upscope $end
$scope begin L1gen_CPU_Dmem[14] $end
$upscope $end
$scope begin L1gen_CPU_Dmem[15] $end
$upscope $end
$scope begin L1gen_CPU_Xreg[0] $end
$upscope $end
$scope begin L1gen_CPU_Xreg[1] $end
$upscope $end
$scope begin L1gen_CPU_Xreg[2] $end
$upscope $end
$scope begin L1gen_CPU_Xreg[3] $end
$upscope $end
$scope begin L1gen_CPU_Xreg[4] $end
$upscope $end
$scope begin L1gen_CPU_Xreg[5] $end
$upscope $end
$scope begin L1gen_CPU_Xreg[6] $end
$upscope $end
$scope begin L1gen_CPU_Xreg[7] $end
$upscope $end
$scope begin L1gen_CPU_Xreg[8] $end
$upscope $end
$scope begin L1gen_CPU_Xreg[9] $end
$upscope $end
$scope begin L1gen_CPU_Xreg[10] $end
$upscope $end
$scope begin L1gen_CPU_Xreg[11] $end
$upscope $end
$scope begin L1gen_CPU_Xreg[12] $end
$upscope $end
$scope begin L1gen_CPU_Xreg[13] $end
$upscope $end
$scope begin L1gen_CPU_Xreg[14] $end
$upscope $end
$scope begin L1gen_CPU_Xreg[15] $end
$upscope $end
$scope begin L1gen_CPU_Xreg[16] $end
$upscope $end
$scope begin L1gen_CPU_Xreg[17] $end
$upscope $end
$scope begin L1gen_CPU_Xreg[18] $end
$upscope $end
$scope begin L1gen_CPU_Xreg[19] $end
$upscope $end
$scope begin L1gen_CPU_Xreg[20] $end
$upscope $end
$scope begin L1gen_CPU_Xreg[21] $end
$upscope $end
$scope begin L1gen_CPU_Xreg[22] $end
$upscope $end
$scope begin L1gen_CPU_Xreg[23] $end
$upscope $end
$scope begin L1gen_CPU_Xreg[24] $end
$upscope $end
$scope begin L1gen_CPU_Xreg[25] $end
$upscope $end
$scope begin L1gen_CPU_Xreg[26] $end
$upscope $end
$scope begin L1gen_CPU_Xreg[27] $end
$upscope $end
$scope begin L1gen_CPU_Xreg[28] $end
$upscope $end
$scope begin L1gen_CPU_Xreg[29] $end
$upscope $end
$scope begin L1gen_CPU_Xreg[30] $end
$upscope $end
$scope begin L1gen_CPU_Xreg[31] $end
$upscope $end
$scope module gen_clkP_CPU_dmem_rd_en_a5 $end
$var wire 1 " free_clk $end
$var wire 1 }# func_en $end
$var wire 1 I gated_clk $end
$var wire 1 ~# gating_override $end
$var wire 1 % pwr_en $end
$upscope $end
$scope module gen_clkP_CPU_rd_valid_a2 $end
$var wire 1 " free_clk $end
$var wire 1 !$ func_en $end
$var wire 1 H gated_clk $end
$var wire 1 "$ gating_override $end
$var wire 1 0 pwr_en $end
$upscope $end
$scope module gen_clkP_CPU_rd_valid_a3 $end
$var wire 1 " free_clk $end
$var wire 1 #$ func_en $end
$var wire 1 G gated_clk $end
$var wire 1 $$ gating_override $end
$var wire 1 6# pwr_en $end
$upscope $end
$scope module gen_clkP_CPU_rd_valid_a4 $end
$var wire 1 " free_clk $end
$var wire 1 %$ func_en $end
$var wire 1 F gated_clk $end
$var wire 1 &$ gating_override $end
$var wire 1 7# pwr_en $end
$upscope $end
$scope module gen_clkP_CPU_rd_valid_a5 $end
$var wire 1 " free_clk $end
$var wire 1 '$ func_en $end
$var wire 1 E gated_clk $end
$var wire 1 ($ gating_override $end
$var wire 1 8# pwr_en $end
$upscope $end
$scope module gen_clkP_CPU_rs1_valid_a2 $end
$var wire 1 " free_clk $end
$var wire 1 )$ func_en $end
$var wire 1 D gated_clk $end
$var wire 1 *$ gating_override $end
$var wire 1 9 pwr_en $end
$upscope $end
$scope module gen_clkP_CPU_rs2_valid_a2 $end
$var wire 1 " free_clk $end
$var wire 1 +$ func_en $end
$var wire 1 C gated_clk $end
$var wire 1 ,$ gating_override $end
$var wire 1 : pwr_en $end
$upscope $end
$upscope $end
$upscope $end
$enddefinitions $end
#0
$dumpvars
0,$
1+$
0*$
1)$
0($
1'$
0&$
1%$
0$$
1#$
0"$
1!$
0~#
1}#
x|#
x{#
xz#
xy#
xx#
xw#
xv#
xu#
xt#
xs#
xr#
xq#
xp#
xo#
xn#
xm#
xl#
xk#
xj#
xi#
xh#
xg#
xf#
xe#
xd#
xc#
xb#
xa#
x`#
x_#
x^#
x]#
x\#
x[#
xZ#
xY#
xX#
xW#
xV#
xU#
xT#
xS#
xR#
xQ#
xP#
xO#
xN#
xM#
bx L#
xK#
xJ#
xI#
xH#
xG#
xF#
xE#
bx D#
bx C#
bx B#
xA#
bx @#
x?#
bx >#
bx =#
x<#
x;#
x:#
x9#
x8#
x7#
x6#
bx 5#
bx 4#
bx 3#
bx 2#
bx 1#
bx 0#
bx /#
bx .#
x-#
x,#
x+#
x*#
x)#
x(#
x'#
x&#
x%#
x$#
x##
x"#
x!#
x~"
x}"
x|"
x{"
xz"
xy"
xx"
xw"
xv"
xu"
xt"
xs"
xr"
xq"
xp"
xo"
xn"
xm"
xl"
xk"
xj"
xi"
xh"
xg"
xf"
xe"
xd"
xc"
xb"
xa"
x`"
x_"
x^"
x]"
x\"
x["
xZ"
xY"
xX"
xW"
xV"
xU"
xT"
xS"
xR"
xQ"
xP"
xO"
xN"
xM"
xL"
xK"
xJ"
xI"
xH"
xG"
xF"
xE"
xD"
xC"
xB"
xA"
x@"
x?"
x>"
x="
x<"
x;"
x:"
x9"
x8"
x7"
x6"
x5"
x4"
x3"
bx 2"
bx 1"
bx 0"
bx /"
x."
bx -"
bx ,"
x+"
x*"
x)"
x("
x'"
bx &"
bx %"
bx $"
bx #"
bx ""
bx !"
bx ~
b0xxxx }
bx |
1{
bx z
bx y
xx
xw
xv
xu
xt
xs
xr
xq
xp
xo
xn
xm
xl
xk
xj
xi
xh
xg
xf
xe
xd
xc
xb
xa
x`
x_
x^
x]
x\
x[
xZ
xY
xX
xW
xV
bx U
bx T
bx S
bx R
bx Q
bx P
xO
xN
bx M
bx L
xK
xJ
0I
0H
0G
0F
0E
0D
0C
bx B
bx A
bx @
bx ?
0>
x=
x<
x;
x:
x9
x8
bx 7
bx 6
x5
x4
bx 3
bx 2
01
x0
bx /
x.
x-
x,
x+
x*
bx )
x(
x'
x&
x%
0$
0#
0"
bx !
$end
#5000
1'"
b0xxxx -"
1."
09#
1$
1>
1I
1H
1G
1F
1E
1D
1C
1"
#10000
0$
0>
0I
0H
0G
0F
0E
0D
0C
0"
#15000
0:#
1("
1$
1>
1I
1H
1G
1F
1E
1D
1C
1"
#20000
0$
0>
0I
0H
0G
0F
0E
0D
0C
0"
#25000
1)"
0;#
1$
1>
1I
1H
1G
1F
1E
1D
1C
1"
#30000
0$
0>
0I
0H
0G
0F
0E
0D
0C
0"
#35000
0<#
1*"
1$
1>
1I
1H
1G
1F
1E
1D
1C
1"
#40000
0$
0>
0I
0H
0G
0F
0E
0D
0C
0"
#45000
1+"
1$
1>
1I
1H
1G
1F
1E
1D
1C
1"
#50000
0$
0>
0I
0H
0G
0F
0E
0D
0C
0"
0{
11
1#
#55000
b0 }
b0 S
19#
0."
1$
1>
1I
1H
1G
1F
1E
1D
1C
1"
#60000
0$
0>
0I
0H
0G
0F
0E
0D
0C
0"
#65000
10
19
1'
1:
0*
1(
1,
0+
0.
0-
b0 z
1x
0Y
0r
0m
0o
0q
0n
0p
0w
0f
0V
0u
0`
0_
0i
0e
0d
0X
0h
0t
0k
0j
0s
0l
b0 @
b0 A
b1010 B
0g
0W
0v
0c
0a
0^
0[
0]
b0 !"
b0 ~
0b
0Z
0\
b110011 $"
b110011 T
b10100110011 )
b10100110011 |
b0 -"
b100 y
b0 /#
1:#
1$
1>
1I
1H
1G
1F
1E
1D
1C
1"
#70000
0$
0>
0I
0H
0G
0F
0E
0D
0C
0"
#75000
b1010 2#
b0 6
b0 >#
b0 7
b0 @#
15
1A#
14
1?#
1;#
16#
b0 %"
b0 0#
0,#
0*#
0&#
0$#
0"#
0~"
0|"
0z"
0x"
0v"
0t"
0r"
0p"
0n"
0j"
0f"
0c"
0a"
0_"
0]"
0["
0Y"
0W"
0U"
0Q"
0M"
0I"
0E"
0A"
0="
0;"
09"
07"
05"
13"
b100 1"
b0 /"
1$
1>
1I
1H
1G
1F
1E
1D
1C
1"
#80000
0$
0>
0I
0H
0G
0F
0E
0D
0C
0"
#85000
0=
0K
b0 U
b0 M
b0 L
0;
0<
b1010 3#
b0 2
b0 3
b0 &"
b0 0"
b100 2"
14"
06"
08"
0:"
0<"
0>"
0B"
0F"
0J"
0N"
0R"
0V"
0X"
0Z"
0\"
0^"
0`"
0b"
0d"
0g"
0k"
0o"
0q"
0s"
0u"
0w"
0y"
0{"
0}"
0!#
0##
0%#
0'#
0+#
0-#
b0 1#
17#
1<#
1$
1>
1I
1H
1G
1F
1E
1D
1C
1"
#90000
0$
0>
0I
0H
0G
0F
0E
0D
0C
0"
#95000
b0 R
0M#
0N#
0O#
0P#
0Q#
0R#
0S#
0T#
0U#
0V#
0W#
0X#
0Y#
0Z#
0[#
0\#
0&
b1010 4#
0J#
0%
0H#
0F#
0N
b0 C#
0O
b0 B#
18#
b0 .#
0(#
0l"
0h"
0e"
0S"
0O"
0K"
0G"
0C"
0?"
1$
1>
1I
1H
1G
1F
1E
1D
1C
1"
#100000
0$
0>
0I
0H
0G
0F
0E
0D
0C
0"
#105000
1g#
18
b0 Q
1J
0]#
0^#
0_#
0`#
0a#
0b#
0c#
0d#
0e#
0f#
0h#
0i#
0j#
0k#
0l#
0m#
0n#
0o#
0p#
0q#
0r#
0s#
0t#
0u#
0v#
0w#
0x#
0y#
0z#
0{#
0|#
b1010 P
b1010 5#
0@"
0D"
0H"
0L"
0P"
0T"
0i"
0m"
0)#
b0 ?
b0 #"
b0 =#
b0 ""
b0 D#
0G#
0I#
0K#
b1110 !
b1110 L#
1$
1>
1I
1H
1G
1F
1E
1D
1C
1"
#110000
0$
0>
0I
0H
0G
0F
0E
0D
0C
0"
#115000
b0 /
b0 ,"
1E#
1$
1>
1I
1H
1G
1F
1E
1D
1C
1"
#120000
0$
0>
0I
0H
0G
0F
0E
0D
0C
0"
#125000
1$
1>
1I
1H
1G
1F
1E
1D
1C
1"
#130000
0$
0>
0I
0H
0G
0F
0E
0D
0C
0"
#135000
1$
1>
1I
1H
1G
1F
1E
1D
1C
1"
#140000
0$
0>
0I
0H
0G
0F
0E
0D
0C
0"
#145000
1$
1>
1I
1H
1G
1F
1E
1D
1C
1"
#150000
0$
0>
0I
0H
0G
0F
0E
0D
0C
0"
1{
01
0#
#155000
b1 }
b100 S
09#
1."
1$
1>
1I
1H
1G
1F
1E
1D
1C
1"
#160000
0$
0>
0I
0H
0G
0F
0E
0D
0C
0"
#165000
b10 }
b1000 S
b1010 A
b1110 B
b1010000011100110011 )
b1010000011100110011 |
b1 -"
b1000 y
b100 /#
0:#
1$
1>
1I
1H
1G
1F
1E
1D
1C
1"
#170000
0$
0>
0I
0H
0G
0F
0E
0D
0C
0"
#175000
0:
b11 }
b1010 z
b1100 S
1*
0(
0,
1w
b1010 @
b1100 B
0x
b10011 $"
b10011 T
b0 U
b0 M
b101001010000011000010011 )
b101001010000011000010011 |
b1110 2#
b1010 2
b1010 6
b1010 >#
0;#
b100 %"
b100 0#
b1100 y
b1000 /#
b1000 1"
b10 -"
1$
1>
1I
1H
1G
1F
1E
1D
1C
1"
#180000
0$
0>
0I
0H
0G
0F
0E
0D
0C
0"
